%YAML 1.1
%TAG !u! tag:unity3d.com,2011:
--- !u!1045 &1
EditorBuildSettings:
  m_ObjectHideFlags: 0
  serializedVersion: 2
  m_Scenes:
  - enabled: 1
    path: Assets/Static Assets/Scenes/LevelOne_Gideon.unity
    guid: 363b480147275b94c86c70b76cba679e
  - enabled: 1
    path: Assets/Static Assets/Scenes/LevelTwo_Brad.unity
    guid: a5694be2e6d93594daa3aee6d7889741
